…
``` r
formula = carrier ~ (month & day) * origin * dest
```

Make an instance using class make_interaction_model:

``` r
im = make_interaction_model(formula, flights, duplicates = 'most')
im
```

    ## $cleaned_tibble
    ## # A tibble: 63,832 × 5
    ##    month   day origin dest  carrier
    ##    <int> <int> <chr>  <chr> <chr>  
    ##  1     1     1 EWR    IAH   UA     
    ##  2     1     1 LGA    IAH   UA     
    ##  3     1     1 JFK    MIA   AA     
    ##  4     1     1 JFK    BQN   B6     
    ##  5     1     1 LGA    ATL   DL     
    ##  6     1     1 EWR    ORD   UA     
    ##  7     1     1 EWR    FLL   UA     
    ##  8     1     1 LGA    IAD   EV     
    ##  9     1     1 JFK    MCO   B6     
    ## 10     1     1 LGA    ORD   AA     
    ## # ℹ 63,822 more rows
    ## 
    ## $interation_tibble
    ## # A tibble: 63,832 × 4
    ##    origin  dest carrier month_day
    ##     <int> <int> <chr>       <int>
    ##  1      1     1 UA              1
    ##  2      2     1 UA              1
    ##  3      3     2 AA              1
    ##  4      3     3 B6              1
    ##  5      2     4 DL              1
    ##  6      1     5 UA              1
    ##  7      1     6 UA              1
    ##  8      2     7 EV              1
    ##  9      3     8 B6              1
    ## 10      2     5 AA              1
    ## # ℹ 63,822 more rows
    ## 
    ## $features_universe
    ## $features_universe$month_day
    ## # A tibble: 372 × 3
    ##    month   day index
    ##    <int> <int> <int>
    ##  1     1     1     1
    ##  2    10     1     2
    ##  3    11     1     3
    ##  4    12     1     4
    ##  5     2     1     5
    ##  6     3     1     6
    ##  7     4     1     7
    ##  8     5     1     8
    ##  9     6     1     9
    ## 10     7     1    10
    ## # ℹ 362 more rows
    ## 
    ## $features_universe$origin
    ## # A tibble: 3 × 2
    ##   origin index
    ##   <fct>  <int>
    ## 1 EWR        1
    ## 2 LGA        2
    ## 3 JFK        3
    ## 
    ## $features_universe$dest
    ## # A tibble: 105 × 2
    ##    dest  index
    ##    <fct> <int>
    ##  1 IAH       1
    ##  2 MIA       2
    ##  3 BQN       3
    ##  4 ATL       4
    ##  5 ORD       5
    ##  6 FLL       6
    ##  7 IAD       7
    ##  8 MCO       8
    ##  9 PBI       9
    ## 10 TPA      10
    ## # ℹ 95 more rows
    ## 
    ## 
    ## $features_unfolding
    ## $features_unfolding$month_day
    ## # A tibble: 315 × 3
    ##    origin  dest index
    ##     <int> <int> <int>
    ##  1      1     1     1
    ##  2      2     1     2
    ##  3      3     1     3
    ##  4      1     2     4
    ##  5      2     2     5
    ##  6      3     2     6
    ##  7      1     3     7
    ##  8      2     3     8
    ##  9      3     3     9
    ## 10      1     4    10
    ## # ℹ 305 more rows
    ## 
    ## $features_unfolding$origin
    ## # A tibble: 38,325 × 3
    ##     dest month_day index
    ##    <int>     <int> <int>
    ##  1     1         1     1
    ##  2     2         1     2
    ##  3     3         1     3
    ##  4     4         1     4
    ##  5     5         1     5
    ##  6     6         1     6
    ##  7     7         1     7
    ##  8     8         1     8
    ##  9     9         1     9
    ## 10    10         1    10
    ## # ℹ 38,315 more rows
    ## 
    ## $features_unfolding$dest
    ## # A tibble: 1,095 × 3
    ##    origin month_day index
    ##     <int>     <int> <int>
    ##  1      1         1     1
    ##  2      2         1     2
    ##  3      3         1     3
    ##  4      1        13     4
    ##  5      2        13     5
    ##  6      3        13     6
    ##  7      1        25     7
    ##  8      2        25     8
    ##  9      3        25     9
    ## 10      1        37    10
    ## # ℹ 1,085 more rows
    ## 
    ## 
    ## $settings
    ## $settings$fo
    ## carrier ~ (month & day) * origin * dest
    ## 
    ## $settings$data_prefix
    ## NULL
…
# Create training and test sets
train_set <- training(diamonds_split)
test_set <- testing(diamonds_split)
```

Create an interaction_model instance:

``` r
diamonds_model = make_interaction_model(price~cut+color+clarity+table+x+y+z, train_set, duplicates = 'average')
diamonds_model
```

    ## $cleaned_tibble
    ## # A tibble: 3,115 × 8
    ##    cut       color clarity table     x     y     z price
    ##    <fct>     <fct> <fct>   <int> <int> <int> <int> <dbl>
    ##  1 Ideal     I     VS1         6     6     5     5 2662.
    ##  2 Ideal     G     VS1         5     5     4     4 2137.
    ##  3 Ideal     D     VS1         1     1     1     1  734.
    ##  4 Ideal     H     VVS1        2     2     1     1  727.
    ##  5 Ideal     E     IF          1     1     1     1  995.
    ##  6 Good      E     SI1         6     6     5     5 3114.
    ##  7 Very Good D     VS2         4     4     4     4 1803.
    ##  8 Good      H     SI1         6     6     5     5 2572.
    ##  9 Ideal     E     VS1         3     3     3     3 1093.
    ## 10 Very Good I     SI1         8     8     6     6 4252.
    ## # ℹ 3,105 more rows
    ## 
    ## $interation_tibble
    ## # A tibble: 3,115 × 8
    ##      cut color clarity table     x     y     z price
    ##    <int> <int>   <int> <int> <int> <int> <int> <dbl>
    ##  1     1     1       1     1     1     1     1 2662.
    ##  2     1     2       1     2     2     2     2 2137.
    ##  3     1     3       1     3     3     3     3  734.
    ##  4     1     4       2     4     4     3     3  727.
    ##  5     1     5       3     3     3     3     3  995.
    ##  6     2     5       4     1     1     1     1 3114.
    ##  7     3     3       5     5     5     2     2 1803.
    ##  8     2     4       4     1     1     1     1 2572.
    ##  9     1     5       1     6     6     4     4 1093.
    ## 10     3     1       4     7     7     5     5 4252.
    ## # ℹ 3,105 more rows
    ## 
    ## $features_universe
    ## $features_universe$cut
…
    ##       z index
    ##   <int> <int>
    ## 1     5     1
    ## 2     4     2
    ## 3     1     3
    ## 4     3     4
    ## 5     6     5
    ## 6     2     6
    ## 7     8     7
    ## 8     7     8
    ## 
    ## 
    ## $features_unfolding
    ## $features_unfolding$cut
    ## # A tibble: 358,400 × 7
    ##    color clarity table     x     y     z index
    ##    <int>   <int> <int> <int> <int> <int> <int>
    ##  1     1       1     1     1     1     1     1
    ##  2     2       1     1     1     1     1     2
    ##  3     3       1     1     1     1     1     3
    ##  4     4       1     1     1     1     1     4
    ##  5     5       1     1     1     1     1     5
    ##  6     6       1     1     1     1     1     6
    ##  7     7       1     1     1     1     1     7
    ##  8     1       2     1     1     1     1     8
    ##  9     2       2     1     1     1     1     9
    ## 10     3       2     1     1     1     1    10
    ## # ℹ 358,390 more rows
    ## 
    ## $features_unfolding$color
    ## # A tibble: 256,000 × 7
    ##      cut clarity table     x     y     z index
    ##    <int>   <int> <int> <int> <int> <int> <int>
    ##  1     1       1     1     1     1     1     1
    ##  2     2       1     1     1     1     1     2
    ##  3     3       1     1     1     1     1     3
    ##  4     4       1     1     1     1     1     4
    ##  5     5       1     1     1     1     1     5
    ##  6     1       2     1     1     1     1     6
    ##  7     2       2     1     1     1     1     7
    ##  8     3       2     1     1     1     1     8
    ##  9     4       2     1     1     1     1     9
    ## 10     5       2     1     1     1     1    10
    ## # ℹ 255,990 more rows
    ## 
    ## $features_unfolding$clarity
    ## # A tibble: 224,000 × 7
    ##      cut color table     x     y     z index
    ##    <int> <int> <int> <int> <int> <int> <int>
    ##  1     1     1     1     1     1     1     1
    ##  2     2     1     1     1     1     1     2
    ##  3     3     1     1     1     1     1     3
    ##  4     4     1     1     1     1     1     4
    ##  5     5     1     1     1     1     1     5
    ##  6     1     2     1     1     1     1     6
    ##  7     2     2     1     1     1     1     7
    ##  8     3     2     1     1     1     1     8
    ##  9     4     2     1     1     1     1     9
    ## 10     5     2     1     1     1     1    10
    ## # ℹ 223,990 more rows
    ## 
    ## $features_unfolding$table
    ## # A tibble: 179,200 × 7
    ##      cut color clarity     x     y     z index
    ##    <int> <int>   <int> <int> <int> <int> <int>
    ##  1     1     1       1     1     1     1     1
    ##  2     2     1       1     1     1     1     2
    ##  3     3     1       1     1     1     1     3
    ##  4     4     1       1     1     1     1     4
    ##  5     5     1       1     1     1     1     5
    ##  6     1     2       1     1     1     1     6
    ##  7     2     2       1     1     1     1     7
    ##  8     3     2       1     1     1     1     8
    ##  9     4     2       1     1     1     1     9
    ## 10     5     2       1     1     1     1    10
    ## # ℹ 179,190 more rows
    ## 
    ## $features_unfolding$x
    ## # A tibble: 179,200 × 7
    ##      cut color clarity table     y     z index
    ##    <int> <int>   <int> <int> <int> <int> <int>
    ##  1     1     1       1     1     1     1     1
    ##  2     2     1       1     1     1     1     2
    ##  3     3     1       1     1     1     1     3
    ##  4     4     1       1     1     1     1     4
    ##  5     5     1       1     1     1     1     5
    ##  6     1     2       1     1     1     1     6
    ##  7     2     2       1     1     1     1     7
    ##  8     3     2       1     1     1     1     8
    ##  9     4     2       1     1     1     1     9
    ## 10     5     2       1     1     1     1    10
    ## # ℹ 179,190 more rows
    ## 
    ## $features_unfolding$y
    ## # A tibble: 224,000 × 7
    ##      cut color clarity table     x     z index
    ##    <int> <int>   <int> <int> <int> <int> <int>
    ##  1     1     1       1     1     1     1     1
    ##  2     2     1       1     1     1     1     2
    ##  3     3     1       1     1     1     1     3
    ##  4     4     1       1     1     1     1     4
    ##  5     5     1       1     1     1     1     5
    ##  6     1     2       1     1     1     1     6
    ##  7     2     2       1     1     1     1     7
    ##  8     3     2       1     1     1     1     8
    ##  9     4     2       1     1     1     1     9
    ## 10     5     2       1     1     1     1    10
    ## # ℹ 223,990 more rows
    ## 
    ## $features_unfolding$z
    ## # A tibble: 224,000 × 7
    ##      cut color clarity table     x     y index
    ##    <int> <int>   <int> <int> <int> <int> <int>
    ##  1     1     1       1     1     1     1     1
    ##  2     2     1       1     1     1     1     2
    ##  3     3     1       1     1     1     1     3
    ##  4     4     1       1     1     1     1     4
    ##  5     5     1       1     1     1     1     5
    ##  6     1     2       1     1     1     1     6
    ##  7     2     2       1     1     1     1     7
    ##  8     3     2       1     1     1     1     8
    ##  9     4     2       1     1     1     1     9
    ## 10     5     2       1     1     1     1    10
    ## # ℹ 223,990 more rows
    ## 
    ## 
    ## $settings
    ## $settings$fo
    ## price ~ cut + color + clarity + table + x + y + z
    ## 
    ## $settings$data_prefix
    ## NULL
…
    ## 6 6  1.123712e-16  2.107353e-16 -1.000000e+00  9.817451e-17  2.233456e-17
    ## 7 7  4.144691e-16  1.000000e+00  1.419177e-16  6.132519e-18 -6.071532e-18
    ## 8 8  1.000000e+00 -1.149913e-16 -4.705323e-17 -2.126466e-17  1.943941e-18
    ##             z_6
    ## 1 -2.204525e-16
    ## 2 -1.845063e-17
    ## 3 -1.000000e+00
    ## 4 -1.110223e-16
    ## 5 -1.387779e-17
    ## 6  2.710505e-17
    ## 7  6.057980e-18
    ## 8 -4.377699e-17
    ## 
    ## $core
    ## # A tibble: 296,352 × 8
    ##    cut   color   clarity   table   x     y     z     core_prob
    ##    <chr> <chr>   <chr>     <chr>   <chr> <chr> <chr>     <dbl>
    ##  1 cut_1 color_1 clarity_1 table_1 x_1   y_1   z_1   -1.59e+ 5
    ##  2 cut_1 color_1 clarity_1 table_1 x_1   y_1   z_2    1.83e-11
    ##  3 cut_1 color_1 clarity_1 table_1 x_1   y_1   z_3    7.48e-12
    ##  4 cut_1 color_1 clarity_1 table_1 x_1   y_1   z_4    3.38e-12
    ##  5 cut_1 color_1 clarity_1 table_1 x_1   y_1   z_5   -3.09e-13
    ##  6 cut_1 color_1 clarity_1 table_1 x_1   y_1   z_6    6.96e-12
    ##  7 cut_1 color_1 clarity_1 table_1 x_1   y_2   z_1    2.06e-11
    ##  8 cut_1 color_1 clarity_1 table_1 x_1   y_2   z_2   -1.05e-24
    ##  9 cut_1 color_1 clarity_1 table_1 x_1   y_2   z_3   -9.68e-28
    ## 10 cut_1 color_1 clarity_1 table_1 x_1   y_2   z_4   -4.37e-28
    ## # ℹ 296,342 more rows
…
